{
  "type": "object",
  "anyOf":[
    {"required": ["scan_execution_policy"]},
    {"required": ["scan_result_policy"]}
  ],
  "properties": {
    "scan_execution_policy": {
      "type": "array",
      "additionalItems": false,
      "items": {
        "maxItems": 5,
        "required": [
          "name",
          "enabled",
          "rules",
          "actions"
        ],
        "type": "object",
        "properties": {
          "name": {
            "minLength": 1,
            "type": "string"
          },
          "description": {
            "type": "string"
          },
          "enabled": {
            "type": "boolean"
          },
          "rules": {
            "type": "array",
            "additionalItems": false,
            "items": {
              "type": "object",
              "required": [],
              "properties": {
                "type": {
                  "enum": [
                    "pipeline",
                    "schedule"
                  ],
                  "type": "string"
                },
                "branches": {
                  "type": "array",
                  "additionalItems": false,
                  "items": {
                    "minLength": 1,
                    "type": "string"
                  }
                },
                "cadence": {
                  "type": "string"
                },
                "clusters": {
                  "type": "object",
                  "minProperties": 1,
                  "maxProperties": 1,
                  "patternProperties": {
                    "\\A[a-z0-9]([-a-z0-9]*[a-z0-9])?\\z": {
                      "type": "object",
                      "properties": {
                        "namespaces": {
                          "type": "array",
                          "items": {
                            "type": "string"
                          }
                        },
                        "resources": {
                          "type": "array",
                          "items": {
                            "type": "string"
                          }
                        },
                        "containers": {
                          "type": "array",
                          "items": {
                            "type": "string"
                          }
                        },
                        "kinds": {
                          "type": "array",
                          "items": {
                            "type": "string"
                          }
                        }
                      }
                    }
                  }
                }
              },
              "if": {
                "properties": {
                  "type": {
                    "const": "schedule"
                  }
                }
              },
              "then": {
                "required": [
                  "cadence"
                ]
              },
              "additionalProperties": false
            }
          },
          "actions": {
            "type": "array",
            "additionalItems": false,
            "items": {
              "required": [
                "scan"
              ],
              "type": "object",
              "properties": {
                "scan": {
                  "enum": [
                    "dast",
                    "secret_detection",
                    "container_scanning",
                    "cluster_image_scanning",
                    "sast"
                  ],
                  "type": "string"
                },
                "scanner_profile": {
                  "type": "string"
                },
                "site_profile": {
                  "type": [
                    "string",
                    "null"
                  ]
                },
                "variables": {
                  "type": "object",
                  "patternProperties": {
                    "\\A[a-zA-Z_][a-zA-Z0-9_]*\\z": {
                      "type": "string"
                    }
                  }
                }
              },
              "allOf": [
                {
                  "if": {
                    "properties": {
                      "scan": {
                        "const": "dast"
                      }
                    }
                  },
                  "then": {
                    "required": [
                      "site_profile"
                    ],
                    "maxProperties": 4
                  }
                },
                {
                  "if": {
                    "properties": {
                      "scan": {
                        "const": "secret_detection"
                      }
                    }
                  },
                  "then": {
                    "maxProperties": 2
                  }
                },
                {
                  "if": {
                    "properties": {
                      "scan": {
                        "const": "cluster_image_scanning"
                      }
                    }
                  },
                  "then": {
                    "maxProperties": 2
                  }
                },
                {
                  "if": {
                    "properties": {
                      "scan": {
                        "const": "container_scanning"
                      }
                    }
                  },
                  "then": {
                    "maxProperties": 2
                  }
                },
                {
                  "if": {
                    "properties": {
                      "scan": {
                        "const": "sast"
                      }
                    }
                  },
                  "then": {
                    "maxProperties": 2
                  }
                }
              ],
              "additionalProperties": false
            }
          }
        }
      }
    },
    "scan_result_policy": {
      "type": "array",
      "additionalItems": false,
      "items": {
        "maxItems": 5,
        "required": [
          "name",
          "enabled",
          "rules",
          "actions"
        ],
        "type": "object",
        "properties": {
          "name": {
            "minLength": 1,
            "type": "string"
          },
          "description": {
            "type": "string"
          },
          "enabled": {
            "type": "boolean"
          },
          "rules": {
            "type": "array",
            "additionalItems": false,
            "items": {
              "type": "object",
              "required": [
                "branches",
                "scanners",
                "vulnerabilities_allowed",
                "severity_levels",
                "vulnerability_states"
              ],
              "properties": {
                "type": {
                  "enum": [
                    "scan_finding"
                  ],
                  "type": "string"
                },
                "branches": {
                  "type": "array",
                  "additionalItems": false,
                  "items": {
                    "minLength": 1,
                    "type": "string"
                  }
                },
                "scanners": {
                  "type": "array",
                  "additionalItems": false,
                  "items":{
                    "minLength": 1,
                    "type": "string"
                  }
                },
                "vulnerabilities_allowed":{
                  "type": "integer"
                },
                "severity_levels":{
                  "type": "array",
                  "additionalItems": false,
                  "items":{
                    "type": {
                      "enum": [
                        "critical",
                        "high",
                        "medium",
                        "low",
                        "info",
                        "unknown"
                      ],
                      "type": "string"
                    }
                  }
                },
                "vulnerability_states":{
                  "type": "array",
                  "additionalItems": false,
                  "items":{
                    "type": {
                      "enum": [
                        "newly_detected",
                        "detected",
                        "confirmed",
                        "resolved",
                        "dismissed"
                      ],
                      "type": "string"
                    }
                  }
                }
              },
              "additionalProperties": false
            }
          },
          "actions": {
            "type": "array",
            "additionalItems": false,
            "items": {
              "anyOf":[
                {"required": ["type","approvals_required","user_approvers"]},
                {"required": ["type","approvals_required","user_approvers_ids"]},
                {"required": ["type","approvals_required","group_approvers"]},
                {"required": ["type","approvals_required","group_approvers_ids"]}
              ],
              "type": "object",
              "properties": {
                "type": {
                  "enum": [
                    "require_approval"
                  ],
                  "type": "string"
                },
                "approvals_required": {
                  "type": "integer"
                },
                "user_approvers": {
                  "type": "array",
                  "additionalItems": false,
                  "items": {
                    "minLength": 1,
                    "type": "string"
                  }
                },
                "user_approvers_ids": {
                  "type": "array",
                  "additionalItems": false,
                  "items": {
                    "minLength": 1,
                    "type": "integer"
                  }
                },
                "group_approvers": {
                  "type": "array",
                  "additionalItems": false,
                  "items": {
                    "minLength": 1,
                    "type": "string"
                  }
                },
                "group_approvers_ids": {
                  "type": "array",
                  "additionalItems": false,
                  "items": {
                    "minLength": 1,
                    "type": "integer"
                  }
                }
              }
            }
          }
        },
        "additionalProperties": false
      }
    }
  },
  "additionalProperties": false
}
